<svg width="787" height="840" viewBox="0 0 787 840" fill="none" xmlns="http://www.w3.org/2000/svg">
<g filter="url(#filter0_f_114_587)">
<circle cx="476.092" cy="362.974" r="212.083" fill="#7A79BD"/>
</g>
<defs>
<filter id="filter0_f_114_587" x="0.00817871" y="-113.109" width="952.167" height="952.167" filterUnits="userSpaceOnUse" color-interpolation-filters="sRGB">
<feFlood flood-opacity="0" result="BackgroundImageFix"/>
<feBlend mode="normal" in="SourceGraphic" in2="BackgroundImageFix" result="shape"/>
<feGaussianBlur stdDeviation="132" result="effect1_foregroundBlur_114_587"/>
</filter>
</defs>
</svg>
