<svg width="26" height="27" viewBox="0 0 26 27" fill="none" xmlns="http://www.w3.org/2000/svg">
<path fill-rule="evenodd" clip-rule="evenodd" d="M7.76065 2.72956C8.81968 2.19822 10.1035 2.46264 10.8683 3.36964C11.0121 3.54022 11.1333 3.72886 11.2286 3.93081L11.8674 5.28411C12.4682 6.55692 12.8747 7.91323 13.0732 9.30746L13.3106 10.9747C13.4685 12.0843 14.785 12.5817 15.633 11.8523C16.2544 11.3179 16.9911 10.936 17.785 10.7368L18.6334 10.524C19.1534 10.3935 19.6874 10.3276 20.2234 10.3276H21.4193C21.7968 10.3276 22.1675 10.4281 22.4935 10.619C23.1484 11.0023 23.5511 11.7059 23.5511 12.4667V13.1887C23.5511 13.5894 23.4805 13.9869 23.3425 14.3628L23.0282 15.2188C22.5518 16.5163 21.7675 17.6778 20.7433 18.6029L19.8903 19.3732C19.0139 20.1647 18.0352 20.834 16.9806 21.3631L15.7049 22.0032C13.9992 22.859 12.1965 23.5047 10.3363 23.9262L8.41741 24.361C8.06946 24.4399 7.7108 24.2829 7.53169 23.9733L4.65374 18.9997L3.17363 15.3541C2.74282 14.293 2.5 13.1646 2.45612 12.0197C2.3811 10.0625 2.88984 8.12742 3.9172 6.46209L3.97086 6.37512C4.46006 5.58214 5.05558 4.86041 5.7407 4.23022L6.57443 3.46332C6.79435 3.26103 7.04129 3.09049 7.30813 2.9566L7.76065 2.72956ZM12.7377 1.78233C11.2433 0.0100875 8.73479 -0.506588 6.66548 0.531644L6.21296 0.758689C5.7426 0.994681 5.30731 1.2953 4.91966 1.65188L4.08594 2.41877C3.23536 3.20117 2.49601 4.0972 1.88867 5.08169L1.83501 5.16865C0.551087 7.24986 -0.084691 9.66821 0.00905706 12.1141C0.0638991 13.545 0.367354 14.9552 0.905746 16.2813L2.41806 20.0062C2.4395 20.059 2.46458 20.1102 2.49312 20.1596L5.41393 25.2072C6.13038 26.4454 7.56503 27.0734 8.9568 26.758L10.8757 26.3232C12.9285 25.8581 14.9177 25.1455 16.8001 24.2011L18.0758 23.561C19.3272 22.9332 20.4886 22.1389 21.5285 21.1997L22.3815 20.4294C23.7015 19.2373 24.7121 17.7405 25.326 16.0684L25.6403 15.2123C25.8782 14.5644 26 13.8793 26 13.1887V12.4667C26 10.8319 25.1347 9.32009 23.7274 8.49635C23.0269 8.08628 22.2304 7.87021 21.4193 7.87021H20.2234C19.4871 7.87021 18.7537 7.96081 18.0395 8.13999L17.1911 8.35281C16.6032 8.50031 16.0366 8.71624 15.5025 8.99489L15.4975 8.95994C15.2642 7.3216 14.7866 5.72782 14.0806 4.23216L13.4417 2.87886C13.2555 2.48426 13.0188 2.11565 12.7377 1.78233Z" fill="#8455F8"/>
</svg>
