<svg width="45" height="31" viewBox="0 0 45 31" fill="none" xmlns="http://www.w3.org/2000/svg">
<path d="M4.09526 0C4.81647 3.27591e-05 5.52485 0.187237 6.14859 0.542641C6.77234 0.898046 7.28929 1.40902 7.64704 2.02376L24.3912 30.955H14.9986L0.540272 5.999C-1.00938 3.32273 0.959399 0 4.09526 0Z" fill="white"/>
<path d="M13.0251 0H22.43L36.895 24.864C37.2487 25.472 37.4352 26.1598 37.4364 26.8599C37.4376 27.5601 37.2533 28.2485 36.9017 28.8576C36.5501 29.4668 36.0433 29.9757 35.4309 30.3346C34.8184 30.6934 34.1215 30.8898 33.4085 30.9045C32.6674 30.9196 31.936 30.7379 31.2914 30.3787C30.6468 30.0195 30.113 29.496 29.7464 28.8636L13.0251 0Z" fill="white"/>
<path d="M37.9488 0H39.3775C43.3057 0 45.6015 4.34667 43.3371 7.49805L41.9084 9.48677C39.9781 12.1731 36.0291 12.0737 34.0981 9.38721L32.8273 7.20739L28.6365 0H37.9488Z" fill="white"/>
</svg>
